{
    "width": 10,
    "height": 20,
    "tiles": "AAAAAAAAAAABBBBBBBBAABBBBBBBBAABBBBBBBBAABBBBBBBBAABBBBBBBBAABBBBBBBBAABBBBBBBBAABBBBBBBBAABBBBBBBBAABBBBBBBBAABBBBBBBBAABBBBBBBBAABBBBBBBBAABBBBBBBBAABBBBBBBBAABBBBBBBBAABBBBBBBBAABBBBBBBBAABBBBBBBBA"
}